<!-- Created with Inkscape (http://www.inkscape.org/) --><svg xmlns:ns1="https://launchpad.net/jessyink" xmlns:dc="http://purl.org/dc/elements/1.1/" xmlns:cc="http://creativecommons.org/ns#" xmlns:rdf="http://www.w3.org/1999/02/22-rdf-syntax-ns#" xmlns:svg="http://www.w3.org/2000/svg" xmlns="http://www.w3.org/2000/svg" xmlns:xlink="http://www.w3.org/1999/xlink" xmlns:sodipodi="http://sodipodi.sourceforge.net/DTD/sodipodi-0.dtd" xmlns:inkscape="http://www.inkscape.org/namespaces/inkscape" width="1000" height="1000" viewBox="0 0 1000 1000" version="1.1" id="svg8" inkscape:version="0.92.4 5da689c313, 2019-01-14" sodipodi:docname="test.svg">
  <defs id="defs33">
    <marker inkscape:stockid="Arrow2Lstart" orient="auto" refY="0.0" refX="0.0" id="Arrow2Lstart" style="overflow:visible" inkscape:isstock="true">
      <path id="path859" style="fill-rule:evenodd;stroke-width:0.625;stroke-linejoin:round;stroke:#000000;stroke-opacity:1;fill:#000000;fill-opacity:1" d="M 8.7185878,4.0337352 L -2.2072895,0.016013256 L 8.7185884,-4.0017078 C 6.9730900,-1.6296469 6.9831476,1.6157441 8.7185878,4.0337352 z " transform="scale(1.1) translate(1,0)"/>
    </marker>
  </defs>
  <sodipodi:namedview pagecolor="#ffffff" bordercolor="#666666" borderopacity="1" objecttolerance="10" gridtolerance="10" guidetolerance="10" inkscape:pageopacity="0" inkscape:pageshadow="2" inkscape:window-width="1920" inkscape:window-height="1017" id="base" showgrid="true" inkscape:snap-text-baseline="true" inkscape:zoom="0.6675088" inkscape:cx="202.7349" inkscape:cy="481.16986" inkscape:window-x="0" inkscape:window-y="0" inkscape:window-maximized="1" inkscape:current-layer="webslicer-layer">
    <inkscape:grid type="xygrid" id="grid27" spacingx="10" spacingy="10" empspacing="10" color="#8080ff" opacity="0.25098039" empcolor="#0000ff" empopacity="0.25098039"/>
  </sodipodi:namedview>
  <g inkscape:groupmode="layer" id="webslicer-layer" inkscape:label="Slide3" style="display:inline">
    <rect height="201.49811" width="248.69112" y="353.92661" x="651.3089" id="slicerect1" style="opacity:0.5;fill:#ff0000;stroke-width:1.11927199">
      <desc id="desc51">format: png
dpi: 96
layout-disposition: bg-el-norepeat
layout-position-anchor: tl</desc>
    </rect>
  <svg:path style="stroke:#000000;fill:none;stroke-width:1.0" d="M 212.7349,481.16986 C 212.7349,487.71484469497875 218.32681273891157,494.0688529299397 226.70606730478025,495.2944728738473 C 235.08532187064893,496.52009281775497 245.93202461393162,492.4070197174087 253.39757635393096,482.76970224112415 C 260.8631280939303,473.1323847648396 264.59353389120616,458.1226027615314 261.10048283438374,442.77949625508086 C 257.6074317775613,427.4363897486303 246.8201620636039,412.14159487370137 231.0191712474619,402.8855887525381 C 215.21818043131992,393.6295826313749 194.68234219999002,390.68608860698697 175.7971155011004,395.7444721583065 C 156.91188880221077,400.80285570962604 140.0616971165057,413.7856257849065 130.4243796402212,430.50718364606905 C 120.78706216393667,447.22874150723163 118.51439874598717,467.32780852851903 123.28213888233385,484.2584977025296 C 128.04987901868054,501.1891868765402 139.6449306100425,514.6248753050212 152.73489999999998,521.16986 C 165.82486938995746,527.7148446949788 180.0226533144879,527.3639753124683 189.7997078665375,522.5268409390386 C 199.57676241858707,517.689706565609 204.71605359624536,508.68341350472315 204.3347422411241,501.2178617647238 C 203.95343088600285,493.75231002472447 198.19601316069932,488.18149454505175 191.40434126239066,488.13242540943514 C 184.612669364082,488.08335627381854 177.16165017872268,493.62958263137483 174.45062875253814,502.88558875253807 C 171.7396073263536,512.1415948737014 174.03715665836674,524.8336574154617 182.63766040212528,535.1674495062094 C 191.23816414588381,545.5012415969571 206.06134390356118,553.0990690046576 222.78290176472376,553.4803803597789 C 239.50445962588634,553.8616917149002 257.7631169647768,546.881990854845 271.1516859463484,533.5628161103564 C 284.54025492791993,520.2436413658678 292.73490000000004,500.8048140849363 292.73490000000004,481.1698600000001 C 292.73490000000004,461.53490591506386 284.54025492792,442.09607863413237 271.15168594634844,428.77690388964373 C 257.7631169647769,415.4577291451551 239.5044596258864,408.4780282850999 222.7829017647238,408.85933964022115 C 206.06134390356118,409.2406509953424 191.23816414588381,416.83847840304287 182.63766040212528,427.17227049379056 C 174.03715665836674,437.50606258453826 171.73960732635356,450.1981251262987 174.45062875253808,459.45413124746193 C 177.1616501787226,468.71013736862517 184.612669364082,474.2563637261815 191.40434126239066,474.2072945905649 C 198.19601316069932,474.1582254549483 203.95343088600285,468.5874099752756 204.3347422411241,461.12185823527625 C 204.71605359624536,453.6563064952769 199.57676241858704,444.6500134343911 189.79970786653746,439.81287906096145 C 180.02265331448788,434.9757446875318 165.8248693899576,434.6248753050213 152.73490000000012,441.16986 C 139.64493061004265,447.71484469497875 128.04987901868066,461.15053312345975 123.28213888233392,478.08122229747033 C 118.51439874598721,495.0119114714809 120.78706216393667,515.1109784927683 130.42437964022116,531.8325363539309 C 140.06169711650566,548.5540942150935 156.91188880221065,561.536864290374 175.79711550110028,566.5952478416935 C 194.6823421999899,571.6536313930131 215.2181804313198,568.7101373686253 231.01917124746183,559.454131247462 C 246.82016206360385,550.1981251262987 257.6074317775613,534.9033302513699 261.10048283438374,519.5602237449193 C 264.59353389120616,504.21711723846875 260.86312809393036,489.2073352351605 253.39757635393104,479.57001775887596 C 245.93202461393173,469.93270028259144 235.08532187064904,465.819627182245 226.70606730478033,467.0452471261526 C 218.32681273891163,468.27086707006026 212.7349,474.6248753050213 212.7349,481.16986Z"/></g>
  <g inkscape:groupmode="layer" id="layer2" inkscape:label="Slide2" style="display:inline">
    <circle style="display:inline;fill:#000080;stroke:none" id="c1" cx="150" cy="450" r="50" inkscape:label="#path3736"/>
    <ellipse style="display:inline;fill:none;stroke:#ff0000;stroke-width:16" id="c2" cx="400" cy="450" rx="100" ry="50" inkscape:label="#path3738"/>
    <path style="display:inline;fill:#ffff00;stroke:#008000;stroke-width:16" id="c3" sodipodi:type="arc" sodipodi:cx="700" sodipodi:cy="450" sodipodi:rx="100" sodipodi:ry="50" sodipodi:start="0.59013865" sodipodi:end="5.6484511" d="m 783.08635,477.82381 a 100,50 0 0 1 -111.09848,20.17442 100,50 0 0 1 -71.96301,-46.88343 100,50 0 0 1 67.71127,-48.44091 100,50 0 0 1 112.7868,17.67793 L 700,450 Z" inkscape:label="#path3740"/>
    <path style="display:inline;fill:none;stroke:#000000;stroke-width:10;marker-start:url(#Arrow2Lstart)" d="M 100,600 200,700 300,600 400,700" id="p1" inkscape:connector-curvature="0" inkscape:label="#path3746"/>
    <path style="display:inline;fill:none;stroke:#000000;stroke-width:10" d="m 500,600 c 0,0 0,100 100,100 100,0 0,-100 100,-100 100,0 100,100 100,100" id="p2" inkscape:connector-curvature="0" inkscape:label="#path3748"/>
    <path sodipodi:type="star" style="display:inline;fill:#ffff00;stroke:#008000;stroke-width:10" id="s1" sodipodi:sides="5" sodipodi:cx="189.03001" sodipodi:cy="847.93945" sodipodi:r1="69.364868" sodipodi:r2="34.682434" sodipodi:arg1="0.63598373" sodipodi:arg2="1.2643023" inkscape:flatsided="false" inkscape:rounded="0" inkscape:randomized="0" d="m 244.8332,889.14005 -45.33887,-8.13446 -32.40428,32.73753 -6.27415,-45.63352 -41.14872,-20.70184 41.46124,-20.06861 6.97297,-45.53197 31.89861,33.23044 45.45824,-7.43847 -21.74681,40.60615 z" inkscape:transform-center-x="6.4673011" inkscape:transform-center-y="-0.16430137"/>
    <use style="display:inline" x="0" y="0" xlink:href="#s1" inkscape:transform-center-x="6.4673011" inkscape:transform-center-y="-0.16430137" id="u1" transform="translate(200,2.9962152)" width="100%" height="100%" inkscape:label="#use3808"/>
  </g>
  <g inkscape:label="Slide1" inkscape:groupmode="layer" id="layer1" style="display:inline">
    <text xml:space="preserve" style="font-size:14.66666698px;line-height:1.25;font-family:sans-serif;fill:#000000;stroke:none" x="100" y="100" id="t1" inkscape:label="#text12"><tspan sodipodi:role="line" id="tspan10" x="100" y="100">Hello World</tspan></text>
    <flowRoot xml:space="preserve" id="t4" style="font-size:40px;line-height:1.25;font-family:sans-serif;fill:#000000;stroke:none" transform="matrix(0.26458333,0,0,0.26458333,372.02961,28.904505)" inkscape:label="#flowRoot14"><flowRegion id="flowRegion16"><rect id="rect18" width="264.5675" height="262.16187" x="105.71429" y="219.66254"/></flowRegion><flowPara id="flowPara20" style="font-size:55.43307114px">flow text which wraps</flowPara></flowRoot>    <text xml:space="preserve" style="font-size:14.66666698px;line-height:1.25;font-family:sans-serif;fill:#000000;stroke:none" x="200" y="100" id="t2" inkscape:label="#text3727"><tspan sodipodi:role="line" id="tspan3725" x="200" y="100" style="font-size:14.66666698px">UPPER</tspan></text>
    <text xml:space="preserve" style="font-size:10.58333302px;line-height:1.25;font-family:sans-serif;fill:#000000;stroke:none" x="300" y="100" id="t3" inkscape:label="#text3735"><tspan sodipodi:role="line" id="tspan3733" x="300" y="100" style="font-size:14.66666698px">Multi line</tspan><tspan sodipodi:role="line" x="300" y="118.33334" id="tspan3737" style="font-size:14.66666698px">text</tspan><tspan sodipodi:role="line" x="300" y="136.66667" id="tspan3739" style="font-size:14.66666698px">FOO</tspan></text>
    <g id="t5" transform="translate(445.71038,-129.64807)" inkscape:label="#g3772">
      <text id="text3762" y="229.64807" x="54.289616" style="font-size:10.58333302px;line-height:1.25;font-family:sans-serif;fill:#000000;stroke:none" xml:space="preserve"><tspan y="229.64807" x="54.289616" id="tspan3760" sodipodi:role="line" style="font-size:14.66666698px">Grouped</tspan></text>
      <text id="text3766" y="259.64807" x="54.289619" style="font-size:14.66666698px;line-height:1.25;font-family:sans-serif;fill:#000000;stroke:none" xml:space="preserve"><tspan y="259.64807" x="54.289619" id="tspan3764" sodipodi:role="line" style="font-size:14.66666698px">text</tspan></text>
    </g>
    <rect style="fill:#000080;stroke:none" id="r1" width="100" height="100" x="100" y="200" inkscape:label="#rect3732"/>
    <rect style="fill:none;stroke:#ff0000;stroke-width:16" id="r2" width="200" height="100" x="300" y="200" inkscape:label="#rect3734"/>
    <rect style="fill:#ffff00;stroke:#008000;stroke-width:16" id="r3" width="200" height="100" x="600" y="200" ry="38.950798" rx="44.943226" inkscape:label="#rect3744"/>
  </g>
  <script ns1:version="1.5.5" id="JessyInk">// dummy
</script>
</svg>