ean8:9493712:2020001011010001100010110111101020201000100110011011011001100110202
ean8:2811738:2020010011011011100110010011001020201000100100001010010001011100202
ean8:2248057:2020010011001001101000110110111020201110010100111010001001010000202
ean8:0995042:2020001101000101100010110110001020201110010101110011011001110100202
ean8:0262682:2020001101001001101011110010011020201010000100100011011001010000202
ean8:2006346:2020010011000110100011010101111020201000010101110010100001000100202
ean8:9892307:2020001011011011100010110010011020201000010111001010001001010000202
ean8:7033691:2020111011000110101111010111101020201010000111010011001101000100202
ean8:6587381:2020101111011000101101110111011020201000010100100011001101010000202
ean8:4491441:2020100011010001100010110011001020201011100101110011001101000100202
ean8:0099044:2020001101000110100010110001011020201110010101110010111001001000202
ean8:7565347:2020111011011000101011110110001020201000010101110010001001000100202
ean8:0764195:2020001101011101101011110100011020201100110111010010011101011100202
ean8:4882328:2020100011011011101101110010011020201000010110110010010001110100202
ean8:4635078:2020100011010111101111010110001020201110010100010010010001000100202
ean8:8992114:2020110111000101100010110010011020201100110110011010111001101100202
ean8:6658162:2020101111010111101100010110111020201100110101000011011001001000202
ean8:7880049:2020111011011011101101110001101020201110010101110011101001010000202
ean8:7782648:2020111011011101101101110010011020201010000101110010010001110010202
ean8:8249002:2020110111001001101000110001011020201110010111001011011001000100202
ean8:8735885:2020110111011101101111010110001020201001000100100010011101001000202
ean8:9818050:2020001011011011100110010110111020201110010100111011100101110100202
ean8:3410390:2020111101010001100110010001101020201000010111010011100101010000202
ean8:9699144:2020001011010111100010110001011020201100110101110010111001101100202
ean8:7628790:2020111011010111100100110110111020201000100111010011100101110100202
ean8:2020310:2020010011000110100100110001101020201000010110011011100101001000202
ean8:0429248:2020001101010001100100110001011020201101100101110010010001000100202
ean8:3135528:2020111101001100101111010110001020201001110110110010010001001110202
ean8:3182301:2020111101001100101101110010011020201000010111001011001101101100202
ean8:0320063:2020001101011110100100110001101020201110010101000010000101010000202
ean8:0865925:2020001101011011101011110110001020201110100110110010011101001110202
ean8:3413434:2020111101010001100110010111101020201011100100001010111001011100202
ean8:6730313:2020101111011101101111010001101020201000010110011010000101000100202
ean8:4091215:2020100011000110100010110011001020201101100110011010011101001000202
ean8:6504268:2020101111011000100011010100011020201101100101000010010001000100202
ean8:0127593:2020001101001100100100110111011020201001110111010010000101000010202
ean8:9214184:2020001011001001100110010100011020201100110100100010111001100110202
ean8:4457000:2020100011010001101100010111011020201110010111001011100101101100202
ean8:2575579:2020010011011000101110110110001020201001110100010011101001011100202
ean8:3501739:2020111101011000100011010011001020201000100100001011101001011100202
ean8:0733658:2020001101011101101111010111101020201010000100111010010001011100202
ean8:6162818:2020101111001100101011110010011020201001000110011010010001101100202
ean8:2397509:2020010011011110100010110111011020201001110111001011101001001110202
ean8:3813610:2020111101011011100110010111101020201010000110011011100101001000202
ean8:9488712:2020001011010001101101110110111020201000100110011011011001110100202
ean8:1754326:2020011001011101101100010100011020201000010110110010100001101100202
ean8:5221351:2020110001001001100100110011001020201000010100111011001101110100202
ean8:6047658:2020101111000110101000110111011020201010000100111010010001010000202
ean8:0475473:2020001101010001101110110110001020201011100100010010000101101100202
ean8:0775368:2020001101011101101110110110001020201000010101000010010001001000202
ean8:5825189:2020110001011011100100110110001020201100110100100011101001001000202
ean8:9934666:2020001011000101101111010100011020201010000101000010100001110100202
ean8:4849196:2020100011011011101000110001011020201100110111010010100001110100202
ean8:6672405:2020101111010111101110110010011020201011100111001010011101010000202
ean8:6368942:2020101111011110101011110110111020201110100101110011011001010000202
ean8:0356360:2020001101011110101100010101111020201000010101000011100101100110202
ean8:1506024:2020011001011000100011010101111020201110010110110010111001101100202
ean8:0218852:2020001101001001100110010110111020201001000100111011011001101100202
ean8:4357801:2020100011011110101100010111011020201001000111001011001101010000202
ean8:8268643:2020110111001001101011110110111020201010000101110010000101000100202
ean8:0117677:2020001101001100100110010111011020201010000100010010001001000010202
ean8:8066330:2020110111000110101011110101111020201000010100001011100101110010202
ean8:3074324:2020111101000110101110110100011020201000010110110010111001000010202
ean8:7241642:2020111011001001101000110011001020201010000101110011011001010000202
ean8:3375910:2020111101011110101110110110001020201110100110011011100101011100202
ean8:5797167:2020110001011101100010110111011020201100110101000010001001011100202
ean8:4413827:2020100011010001100110010111101020201001000110110010001001100110202
ean8:0008083:2020001101000110100011010110111020201110010100100010000101001110202
ean8:3240693:2020111101001001101000110001101020201010000111010010000101100110202
ean8:3358989:2020111101011110101100010110111020201110100100100011101001000010202
ean8:2525297:2020010011011000100100110110001020201101100111010010001001101100202
ean8:9429514:2020001011010001100100110001011020201001110110011010111001010000202
ean8:7496160:2020111011010001100010110101111020201100110101000011100101000010202
ean8:2549811:2020010011011000101000110001011020201001000110011011001101110010202
ean8:0366059:2020001101011110101011110101111020201110010100111011101001100110202
ean8:7565529:2020111011011000101011110110001020201001110110110011101001000100202
ean8:0544331:2020001101011000101000110100011020201000010100001011001101011100202
ean8:5278325:2020110001001001101110110110111020201000010110110010011101001000202
ean8:9659719:2020001011010111101100010001011020201000100110011011101001011100202
ean8:6060276:2020101111000110101011110001101020201101100100010010100001000010202
ean8:9983234:2020001011000101101101110111101020201101100100001010111001010000202
ean8:9912723:2020001011000101100110010010011020201000100110110010000101000100202
ean8:3934993:2020111101000101101111010100011020201110100111010010000101011100202
ean8:9878705:2020001011011011101110110110111020201000100111001010011101110010202
ean8:6099896:2020101111000110100010110001011020201001000111010010100001001110202
ean8:9344302:2020001011011110101000110100011020201000010111001011011001110100202
ean8:5779196:2020110001011101101110110001011020201100110111010010100001001000202
ean8:2670364:2020010011010111101110110001101020201000010101000010111001110010202
ean8:4049157:2020100011000110101000110001011020201100110100111010001001001000202
ean8:6303180:2020101111011110100011010111101020201100110100100011100101001110202
ean8:4252404:2020100011001001101100010010011020201011100111001010111001001110202
ean8:6442834:2020101111010001101000110010011020201001000100001010111001001110202
ean8:7330702:2020111011011110101111010001101020201000100111001011011001110010202
ean8:6650523:2020101111010111101100010001101020201001110110110010000101001110202
ean8:3261954:2020111101001001101011110011001020201110100100111010111001010000202
ean8:1149083:2020011001001100101000110001011020201110010100100010000101001000202
ean8:1227062:2020011001001001100100110111011020201110010101000011011001110010202
ean8:7770854:2020111011011101101110110001101020201001000100111010111001110010202
ean8:4841093:2020100011011011101000110011001020201110010111010010000101110100202
ean8:9642244:2020001011010111101000110010011020201101100101110010111001100110202
ean13:082432472648:20201101110010011010001101111010010011010001102020100010011011001010000101110010010001110010202
ean13:867963203104:20201011110010001000101100001010100001001001102020111001010000101100110111001010111001001110202
ean13:509274672682:20200011010010111001101101110110100011000010102020100010011011001010000100100011011001110010202
ean13:137969745319:20201111010111011001011101011110010111001000102020101110010011101000010110011011101001101100202
ean13:167788639568:20201011110111011001000101101110001001000010102020100001011101001001110101000010010001101100202
ean13:763909437639:20201011110100001000101101001110001011001110102020100001010001001010000100001011101001110010202
ean13:552090940230:20201100010011011010011100010110001101001011102020101110011100101101100100001011100101110100202
ean13:064430020090:20201011110100011010001101111010001101000110102020110110011100101110010111010011100101001000202
ean13:932131660272:20201111010011011011001101111010110011010111102020101000011100101101100100010011011001001000202
ean13:697948544222:20200010110010001001011100111010110111011000102020101110010111001101100110110011011001110010202
ean13:156973387097:20201100010101111001011101110110100001010000102020100100010001001110010111010010001001100110202
ean13:742353933447:20201000110011011011110101110010111101001011102020100001010000101011100101110010001001001000202
ean13:165804313397:20201011110110001000100100011010011101010000102020110011010000101000010111010010001001101100202
ean13:142542648187:20201000110010011011100101000110011011000010102020101110010010001100110100100010001001101100202
ean13:293746185362:20200010110111101001000100111010101111011001102020100100010011101000010101000011011001011100202
ean13:079018947306:20201110110001011000110100110010110111000101102020101110010001001000010111001010100001110010202
ean13:114714603442:20200110010100011001000100110010011101000010102020111001010000101011100101110011011001000100202
ean13:886864480655:20201101110000101011011100001010011101010001102020100100011100101010000100111010011101011100202
ean13:087399049352:20201101110111011011110100010110001011000110102020101110011101001000010100111011011001000010202
ean13:680731212600:20201101110100111001000101000010011001001001102020110011011011001010000111001011100101001000202
ean13:839853108496:20201111010010111011011101110010100001001100102020111001010010001011100111010010100001001000202
ean13:759662798861:20201100010010111010111100001010010011001000102020111010010010001001000101000011001101011100202
ean13:522030126885:20200100110011011010011101111010001101011001102020110110010100001001000100100010011101011100202
ean13:872252192093:20201110110011011001001101110010011011001100102020111010011011001110010111010010000101011100202
ean13:978323527315:20201110110001001010000100100110100001011000102020110110010001001000010110011010011101110100202
ean13:594820728295:20200010110011101000100100100110001101001000102020110110010010001101100111010010011101000100202
ean13:817309047999:20200110010010001011110101001110010111000110102020101110010001001110100111010011101001011100202
ean13:529552650589:20200100110010111011100101100010010011000010102020100111011100101001110100100011101001000010202
ean13:301953031072:20200011010011001001011101110010100001000110102020100001011001101110010100010011011001101100202
ean13:279759074172:20201110110001011001000101110010001011010011102020100010010111001100110100010011011001011100202
ean13:966269952443:20201011110000101001101101011110010111000101102020100111011011001011100101110010000101000100202
ean13:393886491651:20200010110111101000100100010010000101010001102020111010011001101010000100111011001101110100202
ean13:592818880852:20200010110011011000100100110010110111000100102020100100011100101001000100111011011001110010202
ean13:629415132010:20200100110010111001110101100110110001001100102020100001011011001110010110011011100101001000202
ean13:649798154930:20201000110010111001000100101110110111001100102020100111010111001110100100001011100101110100202
ean13:106475417609:20200011010101111001110101110110111001001110102020110011010001001010000111001011101001110010202
ean13:853904645292:20201100010100001000101101001110011101010111102020101110010011101101100111010011011001100110202
ean13:431977667645:20201111010110011000101101110110010001000010102020101000010001001010000101110010011101000010202
ean13:814819509497:20200110010011101011011101100110010111011000102020111001011101001011100111010010001001000100202
ean13:308817835364:20200011010110111000100101100110010001011011102020100001010011101000010101000010111001011100202
ean13:618801393027:20200110010001001000100101001110011001011110102020111010010000101110010110110010001001110010202
ean13:164480667538:20201011110100011001110101101110100111000010102020101000010001001001110100001010010001011100202
ean13:081023710137:20201101110011001000110100100110111101011101102020110011011100101100110100001010001001000100202
ean13:493359422890:20200010110100001011110101100010010111001110102020110110011011001001000111010011100101110010202
ean13:275532814865:20201110110110001011100101000010010011000100102020110011010111001001000101000010011101001000202
ean13:111345042302:20200110010011001010000101000110111001010011102020101110011011001000010111001011011001001000202
ean13:513537464719:20200110010100001011100101111010111011001110102020101000010111001000100110011011101001001110202
ean13:766449694282:20201011110000101010001100111010001011000010102020111010010111001101100100100011011001110100202
ean13:961792988802:20201011110110011001000100010110011011000101102020100100010010001001000111001011011001001110202
ean13:866540005468:20201011110000101011000100111010100111000110102020111001010011101011100101000010010001101100202
ean13:888983089059:20201101110001001000101100010010100001000110102020100100011101001110010100111011101001100110202
ean13:722513175727:20200100110011011011000101100110111101011001102020100010010011101000100110110010001001110100202
ean13:843297735811:20201000110100001001001100101110010001011101102020100001010011101001000110011011001101101100202
ean13:627233353075:20200100110010001001101101000010111101011110102020100111010000101110010100010010011101110010202
ean13:203591705672:20200011010111101011100100101110011001001000102020111001010011101010000100010011011001001110202
ean13:686779501514:20201101110000101001000100100010001011011000102020111001011001101001110110011010111001001110202
ean13:379483955591:20201110110001011001110100010010100001000101102020100111010011101001110111010011001101101100202
ean13:576363706332:20201110110000101010000101011110111101001000102020111001010100001000010100001011011001000010202
ean13:295226681860:20200010110110001001101100110110101111000010102020100100011001101001000101000011100101110100202
ean13:901443422086:20200011010110011001110101000110100001010001102020110110011011001110010100100010100001000100202
ean13:093300442985:20200010110111101011110100011010001101010001102020101110011011001110100100100010011101000010202
ean13:517520551545:20200110010010001011100100100110001101011100102020100111011001101001110101110010011101000010202
ean13:370982564882:20201110110001101001011100010010011011011000102020101000010111001001000100100011011001110010202
ean13:640884610730:20201000110100111000100100010010100011010111102020110011011100101000100100001011100101001110202
ean13:601211133573:20200011010110011001101101100110011001001100102020100001010000101001110100010010000101110100202
ean13:772390839786:20201110110011011011110100101110001101000100102020100001011101001000100100100010100001110100202
ean13:037823325554:20201111010111011011011100100110111101011110102020110110010011101001110100111010111001000010202
ean13:636746415900:20201111010000101001000100111010101111010001102020110011010011101110100111001011100101000100202
ean13:378365729312:20201110110110111010000100001010111001011101102020110110011101001000010110011011011001110010202
ean13:588008084415:20201101110001001010011100011010110111010011102020100100010111001011100110011010011101000010202
ean13:493847586062:20200010110100001011011101000110010001011100102020100100010100001110010101000011011001110010202
ean13:661725378018:20201011110110011001000100110110110001011110102020100010010010001110010110011010010001110010202
ean13:785941917380:20201101110111001000101100111010011001001011102020110011010001001000010100100011100101011100202
ean13:476858945743:20201110110000101011011101100010001001001011102020101110010011101000100101110010000101010000202
ean13:621022451023:20200100110110011010011100110110010011010001102020100111011001101110010110110010000101001000202
ean13:738611126276:20201111010001001010111101100110011001011001102020110110010100001101100100010010100001110010202
ean13:610023637901:20200110010100111010011100110110111101010111102020100001010001001110100111001011001101001000202
ean13:310432899227:20200110010001101001110101000010011011011011102020111010011101001101100110110010001001110010202
ean13:079481718507:20201110110001011010001101101110011001011101102020110011010010001001110111001010001001000010202
ean13:794525704564:20200010110011101011000100110110110001001000102020111001010111001001110101000010111001010000202
ean13:367079205365:20201011110111011010011100100010010111001001102020111001010011101000010101000010011101100110202
ean13:791478205064:20200010110110011010001100100010110111001101102020111001010011101110010101000010111001000100202
ean13:622805103976:20200100110011011000100101001110110001001100102020111001010000101110100100010010100001100110202
ean13:659692878482:20201100010010111000010100101110010011011011102020100010010010001011100100100011011001011100202
ean13:312673979722:20200110010010011000010100100010100001000101102020100010011101001000100110110011011001110010202
ean13:634789369262:20201111010011101001000100010010001011011110102020101000011101001101100101000011011001000100202
ean13:508031061191:20200011010001001010011101111010011001010011102020101000011001101100110111010011001101000100202
ean13:617546677352:20200110010010001011100100111010101111010111102020100010010001001000010100111011011001000010202
ean13:386750842077:20201101110101111001000101110010100111011011102020101110011011001110010100010010001001100110202
ean13:217930060540:20200110010111011001011101000010001101010011102020101000011100101001110101110011100101100110202
ean13:529453929533:20200100110010111001110101100010111101001011102020110110011101001001110100001010000101000010202
ean13:403667633768:20200011010100001010111101011110010001000010102020100001010000101000100101000010010001110100202
ean13:788401327704:20201101110001001010001101001110011001010000102020110110010001001000100111001010111001000100202
ean13:316882500762:20200110010101111000100100010010011011011000102020111001011100101000100101000011011001101100202
ean13:413254666172:20200110010100001001001101100010011101000010102020101000010100001100110100010011011001100110202
ean13:666719764771:20201011110000101001000101100110001011011101102020101000010111001000100100010011001101100110202
ean13:502326102133:20200011010011011010000100100110101111011001102020111001011011001100110100001010000101010000202
ean13:690549661049:20200010110100111011100100111010001011010111102020101000011001101110010101110011101001001110202
ean13:055572466568:20201100010110001011000101110110010011010001102020101000010100001001110101000010010001110100202
ean13:636596356068:20201111010000101011100100101110101111011110102020100111010100001110010101000010010001000010202
ean2:02:010110100111010010011
ean2:19:010110110011010010111
ean2:34:010110100001010100011
upce:844677:202000100100111010011101010111101110110111011020202
upce:610879:202000010101100110001101011011101110110010111020202
upce:982526:202001011100010010011011011000100100110101111020202
upce:846420:202000100100111010101111010001100110110001101020202
upce:322140:202010000100110110010011001100100111010001101020202
upce:625042:202000010100100110110001010011101000110011011020202
upce:996072:202001011100101110101111000110101110110011011020202
upce:539996:202011100101000010001011000101100010110000101020202
upce:340168:202010000100111010001101001100100001010110111020202
upce:841913:202000100101000110100111000101101100110011001020202
upce:124122:202011001100110110100011001100100110110010011020202
upce:401968:202001110100011010110011000101101011110001001020202
upce:225085:202001101100100110111001010011101101110110001020202
upce:368038:202010000101011110001001010011101111010110111020202
upce:817155:202000100100110010111011011001101100010111001020202
upce:554120:202011100101110010100011011001100100110001101020202
upce:113080:202011001101100110111101000110101101110100111020202
upce:755380:202001000101100010110001011110100010010100111020202
upce:201858:202001101100011010110011000100101100010110111020202
upce:226567:202001101100100110000101011100101011110111011020202
upce:507089:202011100101001110111011000110101101110010111020202
upce:442680:202001110101000110011011010111101101110100111020202
upce:557738:202011100101100010111011001000101000010110111020202
upce:928720:202001011100100110001001011101100100110100111020202
upce:395240:202010000100101110110001001101101000110001101020202
upce:931548:202001011101111010110011011000101000110001001020202
upce:729228:202001000100100110001011001001100110110001001020202
upce:116746:202011001100110010000101011101100111010101111020202
upce:293469:202001101100101110111101010001101011110010111020202
upce:555569:202011100101100010111001011000100001010001011020202
upce:786474:202001000100010010000101010001101110110100011020202
upce:761950:202001000101011110110011000101101100010100111020202
upce:585584:202011100101101110111001011000100010010100011020202
upce:929816:202001011100110110001011011011100110010000101020202
upce:311259:202010000100110010011001001101101110010001011020202
upce:694531:202000010100101110011101011000101111010011001020202
upce:375808:202010000100100010110001011011101101110011101020202
upce:240462:202001101100111010001101010001100001010010011020202
upce:309270:202010000100011010010111001001100100010001101020202
upce:531272:202011100101111010110011001001101110110011011020202
upce:910577:202001011100110010001101011100100100010111011020202
upce:816561:202000100100110010000101011000100001010011001020202
upce:805838:202000100100011010110001011011101000010001001020202
upce:533215:202011100101000010111101001101100110010110001020202
upce:346122:202010000101000110000101001100100100110011011020202
upce:625930:202000010100100110110001001011101000010001101020202
upce:952717:202001011101110010010011001000100110010111011020202
upce:402896:202001110101001110010011011011100010110000101020202
upce:295983:202001101100101110110001000101101101110100001020202
upce:024592:202010011100100110011101011000100010110011011020202
upce:289724:202001101101101110010111011101100100110011101020202
upce:252704:202001101101110010011011011101100011010100011020202
upce:273290:202001101101110110111101001101100010110100111020202
upce:385633:202010000100010010110001010111101111010100001020202
upce:549951:202011100100111010001011001011101100010011001020202
upce:568347:202011100101011110110111010000100111010111011020202
upce:214740:202001101100110010011101001000101000110001101020202
upce:969934:202001011101011110010111000101101111010011101020202
upce:832367:202000100101111010010011010000100001010111011020202
upce:359222:202010000101100010001011001101100110110010011020202
upce:508230:202011100101001110001001001001101111010001101020202
upce:308002:202010000101001110110111010011100011010010011020202
upce:318751:202010000100110010001001011101101110010011001020202
upce:174459:202011001100100010011101010001101100010001011020202
upce:403448:202001110101001110111101010001101000110001001020202
upce:429459:202001110100100110010111010001101110010001011020202
upce:271338:202001101100100010110011011110101111010110111020202
upce:515949:202011100100110010110001001011101000110010111020202
upce:066186:202010011101011110000101001100100010010101111020202
upce:609466:202000010100011010001011001110101011110000101020202
upce:857406:202000100101110010010001010001101011110100011020202
upce:237382:202001101101111010111011010000101101110011011020202
upce:260304:202001101100001010001101010000100011010100011020202
upce:899152:202000100100101110010111001100101100010010011020202
upce:773424:202001000100100010111101001110100100110100011020202
upce:367789:202010000101011110111011011101100010010010111020202
upce:344078:202010000100111010011101000110101110110110111020202
upce:627031:202000010100100110010001000110101000010011001020202
upce:146732:202011001100111010101111001000101111010010011020202
upce:608666:202000010100011010001001000010101011110101111020202
upce:855228:202000100101110010111001001001100100110110111020202
upce:439192:202001110101000010010111001100100010110010011020202
upce:917451:202001011100110010010001010001101110010011001020202
upce:072613:202010011101110110100111010111100110010011011020202
upce:813590:202000100100110010100001011000100010110100111020202
upce:176138:202011001100100010101111001100101000010110111020202
upce:690945:202000010100101110001101001011101000110110001020202
upce:849613:202000100100111010001011010111101100110111101020202
upce:269053:202001101101011110001011000110101110010100001020202
upce:701050:202001000100011010011001010011101110010001101020202
upce:074527:202010011101110110011101011000100110110111011020202
upce:218296:202001101100110010001001001101100010110101111020202
upce:874938:202000100100100010100011000101101111010001001020202
upce:023936:202010011100110110111101000101101111010000101020202
upce:896764:202000100100101110000101011101101011110100011020202
upce:979612:202001011100100010001011010111101100110010011020202
upce:137449:202011001101000010010001010001101000110001011020202
upce:687160:202000010100010010010001001100101011110001101020202
upce:839620:202000100101111010010111000010100100110001101020202
upce:921800:202001011100100110110011000100100011010001101020202
ean5:72823:010110010001010011011010110111010010011010111101
ean5:19075:010110110011010001011010001101010010001010110001
ean5:16659:010110011001010000101010101111010111001010001011
ean5:54239:010110111001010100011010011011010111101010001011
ean5:70848:010110111011010001101010001001010011101010110111
ean5:75795:010110010001010110001010111011010001011010111001
ean5:15726:010110011001010110001010010001010011011010101111
ean5:58560:010110110001010110111010110001010000101010100111
ean5:24670:010110011011010100011010101111010111011010100111
ean5:24946:010110011011010100011010001011010100011010000101
ean5:69776:010110000101010001011010010001010111011010101111
ean5:74692:010110010001010100011010101111010010111010010011
ean5:10925:010110110011010001101010001011010010011010111001
ean5:63372:010110000101010111101010111101010111011010011011
ean5:62942:010110101111010010011010010111010011101010010011
ean5:35265:010110111101010110001010011011010101111010111001
ean5:38088:010110111101010001001010001101010001001010110111
ean5:50203:010110111001010100111010010011010001101010111101
ean5:57111:010110111001010111011010011001010011001010110011
ean5:64593:010110101111010100011010111001010001011010100001
ean5:52424:010110110001010010011010011101010011011010100011
ean5:77259:010110010001010111011010010011010111001010001011
ean5:07028:010110001101010111011010100111010011011010110111
ean5:50627:010110111001010001101010101111010011011010111011
ean5:60414:010110000101010001101010011101010011001010100011
ean5:86940:010110001001010101111010010111010100011010001101
ean5:36095:010110111101010101111010100111010001011010111001
ean5:01124:010110100111010011001010011001010011011010100011
ean5:57346:010110111001010111011010100001010100011010101111
ean5:79607:010110010001010001011010000101010001101010111011
ean5:31184:010110111101010011001010110011010001001010100011
ean5:29583:010110011011010001011010110001010110111010100001
ean5:75568:010110111011010110001010111001010101111010001001
ean5:53258:010110110001010100001010010011010111001010110111
ean5:78345:010110010001010110111010111101010100011010111001
ean5:56838:010110110001010000101010001001010111101010110111
ean5:61031:010110101111010110011010001101010100001010011001
ean5:98054:010110001011010110111010001101010111001010011101
ean5:28204:010110010011010110111010010011010100111010011101
ean5:18738:010110011001010001001010111011010100001010110111
ean5:17221:010110110011010111011010010011010010011010110011
ean5:02270:010110001101010011011010010011010010001010001101
ean5:02378:010110001101010011011010100001010111011010110111
ean5:15957:010110110011010110001010010111010110001010111011
ean5:13621:010110011001010111101010000101010010011010110011
ean5:98891:010110001011010001001010110111010010111010011001
ean5:50554:010110110001010100111010110001010111001010100011
ean5:22677:010110010011010010011010101111010010001010010001
ean5:49420:010110011101010001011010100011010010011010100111
ean5:57712:010110110001010010001010010001010011001010010011
ean5:13839:010110011001010100001010110111010111101010010111
ean5:36422:010110111101010101111010011101010010011010011011
ean5:10137:010110011001010100111010110011010111101010111011
ean5:22734:010110010011010011011010010001010111101010100011
ean5:25562:010110010011010110001010110001010000101010011011
ean5:49015:010110100011010010111010001101010110011010110001
ean5:34620:010110100001010100011010000101010010011010001101
ean5:74909:010110010001010100011010010111010001101010001011
ean5:57115:010110110001010111011010110011010110011010110001
ean5:84963:010110001001010011101010001011010101111010111101
ean5:95948:010110001011010110001010010111010100011010001001
ean5:36006:010110100001010101111010100111010001101010101111
ean5:05457:010110100111010110001010100011010110001010010001
ean5:54806:010110111001010100011010110111010001101010000101
ean5:32152:010110100001010010011010110011010110001010010011
ean5:64913:010110101111010100011010010111010011001010100001
ean5:53560:010110111001010111101010111001010101111010001101
ean5:57373:010110110001010111011010100001010111011010100001
ean5:54685:010110110001010100011010101111010001001010111001
ean5:75408:010110010001010110001010100011010100111010110111
ean5:56632:010110111001010000101010101111010111101010010011
ean5:22639:010110010011010010011010101111010100001010010111
ean5:92955:010110010111010010011010001011010111001010110001
ean5:75465:010110111011010111001010100011010000101010110001
ean5:56506:010110111001010101111010110001010100111010101111
ean5:22627:010110011011010010011010000101010010011010111011
ean5:98251:010110010111010110111010010011010110001010110011
ean5:90220:010110010111010001101010011011010010011010001101
ean5:93426:010110010111010111101010100011010011011010101111
ean5:74169:010110010001010100011010110011010101111010001011
ean5:36259:010110100001010101111010011011010110001010001011
ean5:71855:010110111011010110011010001001010110001010110001
ean5:04584:010110001101010100011010111001010001001010100011
ean5:01152:010110100111010011001010011001010110001010011011
ean5:72757:010110111011010010011010111011010111001010010001
ean5:28673:010110010011010001001010101111010111011010100001
ean5:75084:010110010001010111001010001101010110111010100011
ean5:10562:010110011001010100111010110001010101111010011011
ean5:63726:010110000101010111101010111011010011011010101111
ean5:04292:010110001101010100011010011011010001011010011011
ean5:77513:010110111011010010001010110001010110011010111101
ean5:17826:010110011001010111011010110111010011011010000101
ean5:44790:010110011101010011101010111011010001011010001101
ean5:39572:010110111101010010111010111001010111011010010011
ean5:55321:010110111001010111001010111101010010011010011001
ean5:89717:010110110111010001011010111011010110011010010001
ean5:02126:010110001101010011011010011001010011011010101111
ean5:30106:010110100001010100111010011001010001101010101111
ean5:57489:010110110001010111011010011101010110111010010111
ean5:26505:010110011011010000101010110001010001101010110001
upca:40710631975:20201000110001101011101100110010001101010111102020100001011001101110100100010010011101100110202
upca:80176224795:20201101110001101001100101110110101111001001102020110110010111001000100111010010011101100110202
upca:92748137722:20200010110010011011101101000110110111001100102020100001010001001000100110110011011001010000202
upca:32450677259:20201111010010011010001101100010001101010111102020100010010001001101100100111011101001110010202
upca:40851674702:20201000110001101011011101100010011001010111102020100010010111001000100111001011011001001000202
upca:59115174167:20201100010001011001100100110010110001001100102020100010010111001100110101000010001001100110202
upca:84003578078:20201101110100011000110100011010111101011000102020100010010010001110010100010010010001001000202
upca:95062540829:20200010110110001000110101011110010011011000102020101110011100101001000110110011101001010000202
upca:64901078016:20201011110100011000101100011010011001000110102020100010010010001110010110011010100001110010202
upca:48432140125:20201000110110111010001101111010010011001100102020101110011100101100110110110010011101010000202
upca:17430588576:20200110010111011010001101111010001101011000102020100100010010001001110100010010100001001000202
upca:63153964133:20201011110111101001100101100010111101000101102020101000010111001100110100001010000101010000202
upca:74093932950:20201110110100011000110100010110111101000101102020100001011011001110100100111011100101001110202
upca:57541363089:20201100010111011011000101000110011001011110102020101000010000101110010100100011101001000100202
upca:07377087198:20200011010111011011110101110110111011000110102020100100010001001100110111010010010001110100202
upca:05635524594:20200011010110001010111101111010110001011000102020110110010111001001110111010010111001001000202
upca:70318362910:20201110110001101011110100110010110111011110102020101000011011001110100110011011100101011100202
upca:36925218506:20201111010101111000101100100110110001001001102020110011010010001001110111001010100001001110202
upca:45343236277:20201000110110001011110101000110111101001001102020100001010100001101100100010010001001110010202
upca:03926388241:20200011010111101000101100100110101111011110102020100100010010001101100101110011001101101100202
upca:64192083538:20201011110100011001100100010110010011000110102020100100010000101001110100001010010001100110202
upca:25525653142:20200100110110001011000100100110110001010111102020100111010000101100110101110011011001110010202
upca:38104462945:20201111010110111001100100011010100011010001102020101000011011001110100101110010011101001000202
upca:09225889378:20200011010001011001001100100110110001011011102020100100011101001000010100010010010001000100202
upca:93748811785:20200010110111101011101101000110110111011011102020110011011001101000100100100010011101001110202
upca:30467816622:20201111010001101010001101011110111011011011102020110011010100001010000110110011011001110100202
upca:74931591622:20201110110100011000101101111010011001011000102020111010011001101010000110110011011001000010202
upca:92475784788:20200010110010011010001101110110110001011101102020100100010111001000100100100010010001110100202
upca:40454544331:20201000110001101010001101100010100011011000102020101110010111001000010100001011001101000010202
upca:35237883084:20201111010110001001001101111010111011011011102020100100010000101110010100100010111001100110202
upca:75646706855:20201110110110001010111101000110101111011101102020111001010100001001000100111010011101000100202
upca:82889483314:20201101110010011011011101101110001011010001102020100100010000101000010110011010111001101100202
upca:73893633416:20201110110111101011011100010110111101010111102020100001010000101011100110011010100001001110202
upca:10454576813:20200110010001101010001101100010100011011000102020100010010100001001000110011010000101101100202
upca:33334522835:20201111010111101011110101111010100011011000102020110110011011001001000100001010011101110100202
upca:45793591164:20201000110110001011101100010110111101011000102020111010011001101100110101000010111001110010202
upca:18057726450:20200110010110111000110101100010111011011101102020110110010100001011100100111011100101000100202
upca:96083152912:20200010110101111000110101101110111101001100102020100111011011001110100110011011011001001000202
upca:16563181689:20200110010101111011000101011110111101001100102020100100011001101010000100100011101001101100202
upca:51276473461:20201100010011001001001101110110101111010001102020100010010000101011100101000011001101011100202
upca:08128913293:20200011010110111001100100100110110111000101102020110011010000101101100111010010000101011100202
upca:34146752391:20201111010100011001100101000110101111011101102020100111011011001000010111010011001101000100202
upca:97515692692:20200010110111011011000100110010110001010111102020111010011011001010000111010011011001000100202
upca:97669919853:20200010110111011010111101011110001011000101102020110011011101001001000100111010000101010000202
upca:18678734797:20200110010110111010111101110110110111011101102020100001010111001000100111010010001001110100202
upca:74076303825:20201110110100011000110101110110101111011110102020111001010000101001000110110010011101000010202
upca:08662387020:20200011010110111010111101011110010011011110102020100100010001001110010110110011100101010000202
upca:26133671442:20200100110101111001100101111010111101010111102020100010011001101011100101110011011001000010202
upca:87138605931:20201101110111011001100101111010110111010111102020111001010011101110100100001011001101001110202
upca:67189289819:20201011110111011001100101101110001011001001102020100100011101001001000110011011101001110010202
upca:09759720707:20200011010001011011101101100010001011011101102020110110011100101000100111001010001001000010202
upca:56485529906:20201100010101111010001101101110110001011000102020110110011101001110100111001010100001110100202
upca:58154525395:20201100010110111001100101100010100011011000102020110110010011101000010111010010011101001000202
upca:67888609275:20201011110111011011011101101110110111010111102020111001011101001101100100010010011101010000202
upca:15168153237:20200110010110001001100101011110110111001100102020100111010000101101100100001010001001110010202
upca:74424730673:20201110110100011010001100100110100011011101102020100001011100101010000100010010000101110100202
upca:45168971187:20201000110110001001100101011110110111000101102020100010011001101100110100100010001001000100202
upca:12149723784:20200110010010011001100101000110001011011101102020110110010000101000100100100010111001011100202
upca:33804286457:20201111010111101011011100011010100011001001102020100100010100001011100100111010001001101100202
upca:27558248562:20200100110111011011000101100010110111001001102020101110010010001001110101000011011001011100202
upca:92390267160:20200010110010011011110100010110001101001001102020101000010001001100110101000011100101000100202
upca:63742039163:20201011110111101011101101000110010011000110102020100001011101001100110101000010000101101100202
upca:67117098326:20201011110111011001100100110010111011000110102020111010010010001000010110110010100001010000202
upca:32901624258:20201111010010011000101100011010011001010111102020110110010111001101100100111010010001001000202
upca:88848685777:20201101110110111011011101000110110111010111102020100100010011101000100100010010001001101100202
upca:57070085601:20201100010111011000110101110110001101000110102020100100010011101010000111001011001101100110202
upca:83043128438:20201101110111101000110101000110111101001100102020110110010010001011100100001010010001010000202
upca:52432147628:20201100010010011010001101111010010011001100102020101110010001001010000110110010010001001000202
upca:15067795584:20200110010110001000110101011110111011011101102020111010010011101001110100100010111001100110202
upca:27777156430:20200100110111011011101101110110111011001100102020100111010100001011100100001011100101100110202
upca:82471218344:20201101110010011010001101110110011001001001102020110011010010001000010101110010111001011100202
upca:94175044091:20200010110100011001100101110110110001000110102020101110010111001110010111010011001101010000202
upca:34936749963:20201111010100011000101101111010101111011101102020101110011101001110100101000010000101110100202
upca:46502492658:20201000110101111011000100011010010011010001102020111010011011001010000100111010010001100110202
upca:47153985860:20201000110111011001100101100010111101000101102020100100010011101001000101000011100101010000202
upca:79601763982:20201110110001011010111100011010011001011101102020101000010000101110100100100011011001110010202
upca:91685238225:20200010110011001010111101101110110001001001102020100001010010001101100110110010011101110100202
upca:46916417994:20201000110101111000101100110010101111010001102020110011010001001110100111010010111001011100202
upca:30878845484:20201111010001101011011101110110110111011011102020101110010011101011100100100010111001110100202
upca:39321907655:20201111010001011011110100100110011001000101102020111001010001001010000100111010011101011100202
upca:48232524842:20201000110110111001001101111010010011011000102020110110010111001001000101110011011001010000202
upca:94750199914:20200010110100011011101101100010001101001100102020111010011101001110100110011010111001010000202
upca:28310653784:20200100110110111011110100110010001101010111102020100111010000101000100100100010111001100110202
upca:00814405096:20200011010001101011011100110010100011010001102020111001010011101110010111010010100001000100202
upca:60974743279:20201011110001101000101101110110100011011101102020101110010000101101100100010011101001011100202
upca:45141255670:20201000110110001001100101000110011001001001102020100111010011101010000100010011100101010000202
upca:62241294735:20201011110010011001001101000110011001001001102020111010010111001000100100001010011101001110202
upca:67241197048:20201011110111011001001101000110011001001100102020111010010001001110010101110010010001110100202
upca:57709892169:20201100010111011011101100011010001011011011102020111010011011001100110101000011101001000100202
upca:49234133045:20201000110001011001001101111010100011001100102020100001010000101110010101110010011101010000202
upca:44106865868:20201000110100011001100100011010101111011011102020101000010011101001000101000010010001001000202
upca:07033900539:20200011010111011000110101111010111101000101102020111001011100101001110100001011101001000100202
upca:63922260360:20201011110111101000101100100110010011001001102020101000011100101000010101000011100101110100202
upca:63544942112:20201011110111101011000101000110100011000101102020101110011011001100110110011011011001001110202
upca:52602007800:20201100010010011010111100011010010011000110102020111001010001001001000111001011100101001000202
upca:94048257810:20200010110100011000110101000110110111001001102020100111010001001001000110011011100101101100202
upca:82699181094:20201101110010011010111100010110001011001100102020100100011001101110010111010010111001000010202
upca:94628599972:20200010110100011010111100100110110111011000102020111010011101001110100100010011011001011100202
upca:09938844603:20200011010001011000101101111010110111011011102020101110010111001010000111001010000101010000202
upca:37128560103:20201111010111011001100100100110110111011000102020101000011100101100110111001010000101110010202
code128:Something:11010010000110111010001000111101011110111010101100100001001111010010011000010100001101001100001010010011010000100011101101100011101011
code128:OrOther:1101001000010001110110100100111101000111011010011110100100110000101011001000010010011110101001111001100011101011
code128:Inkscape:110100100001100010001011000010100110000100101011110010010000101100100101100001010011110010110010000100111001101100011101011
code128:Simple:11010010000110111010001000011010011110111010101001111001100101000010110010000111010111101100011101011
code25i:123456:10101101001010110011011010010100110100110010101101
code39:123456:10010110110101101001010110101100101011011011001010101010011010110110100110101010110011010101001011011010
code39ext:123456:10010110110101001001010010101010110011010010010100101101010110010100100101001010110101100101001001010010101011011001010010010100101100101010110100100101001010011010101101001011011010
rm4scc:123456:25051525350515352515052535150535251515252505251535050535353
rm4scc:a1b2c3e4:251525152505152535153505250515352505253515150525350535350515053525053505353
